{
   "name": "pgwaffles",
   "abstract": "A postgres extension to display the best waffles recipe",
   "version": "1.0.1",
   "maintainer": "Lætitia Avrot <pgxn@arkhena.33mail.com>",
   "license": "postgresql",
   "meta-spec": {
      "version": "1.0.1",
      "url": "http://pgxn.org/meta/spec.txt"
   },
   "provides": {
      "pgwaffles": {
         "abstract": "A postgres extension to display the best waffles recipe",
         "file": "pgwaffles--1.sql",
         "docfile": "README.md",
         "version": "1.0.1"
      }
   },
   "resources": {
      "bugtracker": {
         "web": "https://gitlab.com/l_avrot/pgwaffles/-/issues"
      },
      "repository": {
        "web":  "https://gitlab.com/l_avrot/pgwaffles.git",
        "type": "git"
      }
   },
   "generated_by": "Lætitia Avrot",
   "meta-spec": {
      "version": "1.0.0",
      "url": "http://pgxn.org/meta/spec.txt"
   },
   "tags": [
      "waffles",
      "fosdem"
   ]
}
